%YAML 1.1
%TAG !u! tag:unity3d.com,2011:
--- !u!1 &1512415927738162230
GameObject:
  m_ObjectHideFlags: 0
  m_CorrespondingSourceObject: {fileID: 0}
  m_PrefabInstance: {fileID: 0}
  m_PrefabAsset: {fileID: 0}
  serializedVersion: 6
  m_Component:
  - component: {fileID: 6568237718259800157}
  - component: {fileID: 759864183}
  m_Layer: 0
  m_Name: Weapons
  m_TagString: Untagged
  m_Icon: {fileID: 0}
  m_NavMeshLayer: 0
  m_StaticEditorFlags: 0
  m_IsActive: 1
--- !u!4 &6568237718259800157
Transform:
  m_ObjectHideFlags: 0
  m_CorrespondingSourceObject: {fileID: 0}
  m_PrefabInstance: {fileID: 0}
  m_PrefabAsset: {fileID: 0}
  m_GameObject: {fileID: 1512415927738162230}
  m_LocalRotation: {x: 0, y: 0, z: 0, w: 1}
  m_LocalPosition: {x: 0, y: 0, z: 0}
  m_LocalScale: {x: 1, y: 1, z: 1}
  m_Children:
  - {fileID: 8027165098580274607}
  - {fileID: 5297309595511501276}
  - {fileID: 1484371789220752520}
  m_Father: {fileID: 4936490315199674457}
  m_RootOrder: 0
  m_LocalEulerAnglesHint: {x: 0, y: 0, z: 0}
--- !u!114 &759864183
MonoBehaviour:
  m_ObjectHideFlags: 0
  m_CorrespondingSourceObject: {fileID: 0}
  m_PrefabInstance: {fileID: 0}
  m_PrefabAsset: {fileID: 0}
  m_GameObject: {fileID: 1512415927738162230}
  m_Enabled: 1
  m_EditorHideFlags: 0
  m_Script: {fileID: 11500000, guid: daa2f5583665c034784938329e8c276e, type: 3}
  m_Name: 
  m_EditorClassIdentifier: 
  _currentWeapon: 0
--- !u!1 &4936490315199964285
GameObject:
  m_ObjectHideFlags: 0
  m_CorrespondingSourceObject: {fileID: 0}
  m_PrefabInstance: {fileID: 0}
  m_PrefabAsset: {fileID: 0}
  serializedVersion: 6
  m_Component:
  - component: {fileID: 4936490315199674457}
  - component: {fileID: 4936490315201209945}
  - component: {fileID: 4936490315203508857}
  - component: {fileID: 4936490315189719455}
  - component: {fileID: 4936490315190811665}
  m_Layer: 0
  m_Name: MainCamera
  m_TagString: MainCamera
  m_Icon: {fileID: 0}
  m_NavMeshLayer: 0
  m_StaticEditorFlags: 0
  m_IsActive: 1
--- !u!4 &4936490315199674457
Transform:
  m_ObjectHideFlags: 0
  m_CorrespondingSourceObject: {fileID: 0}
  m_PrefabInstance: {fileID: 0}
  m_PrefabAsset: {fileID: 0}
  m_GameObject: {fileID: 4936490315199964285}
  m_LocalRotation: {x: 0, y: 0, z: 0, w: 1}
  m_LocalPosition: {x: 0, y: 0.6, z: 0}
  m_LocalScale: {x: 1, y: 1, z: 1}
  m_Children:
  - {fileID: 6568237718259800157}
  m_Father: {fileID: 4936490315199674459}
  m_RootOrder: 0
  m_LocalEulerAnglesHint: {x: 0, y: 0, z: 0}
--- !u!20 &4936490315201209945
Camera:
  m_ObjectHideFlags: 0
  m_CorrespondingSourceObject: {fileID: 0}
  m_PrefabInstance: {fileID: 0}
  m_PrefabAsset: {fileID: 0}
  m_GameObject: {fileID: 4936490315199964285}
  m_Enabled: 1
  serializedVersion: 2
  m_ClearFlags: 1
  m_BackGroundColor: {r: 0.19215687, g: 0.3019608, b: 0.4745098, a: 0.019607844}
  m_projectionMatrixMode: 1
  m_GateFitMode: 2
  m_FOVAxisMode: 0
  m_SensorSize: {x: 36, y: 24}
  m_LensShift: {x: 0, y: 0}
  m_FocalLength: 50
  m_NormalizedViewPortRect:
    serializedVersion: 2
    x: 0
    y: 0
    width: 1
    height: 1
  near clip plane: 0.01
  far clip plane: 1000
  field of view: 60
  orthographic: 0
  orthographic size: 5
  m_Depth: 0
  m_CullingMask:
    serializedVersion: 2
    m_Bits: 4294967295
  m_RenderingPath: -1
  m_TargetTexture: {fileID: 0}
  m_TargetDisplay: 0
  m_TargetEye: 3
  m_HDR: 0
  m_AllowMSAA: 1
  m_AllowDynamicResolution: 0
  m_ForceIntoRT: 0
  m_OcclusionCulling: 1
  m_StereoConvergence: 10
  m_StereoSeparation: 0.022
--- !u!81 &4936490315203508857
AudioListener:
  m_ObjectHideFlags: 0
  m_CorrespondingSourceObject: {fileID: 0}
  m_PrefabInstance: {fileID: 0}
  m_PrefabAsset: {fileID: 0}
  m_GameObject: {fileID: 4936490315199964285}
  m_Enabled: 1
--- !u!114 &4936490315189719455
MonoBehaviour:
  m_ObjectHideFlags: 0
  m_CorrespondingSourceObject: {fileID: 0}
  m_PrefabInstance: {fileID: 0}
  m_PrefabAsset: {fileID: 0}
  m_GameObject: {fileID: 4936490315199964285}
  m_Enabled: 0
  m_EditorHideFlags: 0
  m_Script: {fileID: 11500000, guid: 83c81407209f85e4c87c0cda8b32868e, type: 3}
  m_Name: 
  m_EditorClassIdentifier: 
  Camera: {fileID: 4936490315201209945}
  motionBob:
    HorizontalBobRange: 0.1
    VerticalBobRange: 0.05
    Bobcurve:
      serializedVersion: 2
      m_Curve:
      - serializedVersion: 3
        time: 0
        value: 0
        inSlope: 0
        outSlope: 0
        tangentMode: 0
        weightedMode: 0
        inWeight: 0.33333334
        outWeight: 0.33333334
      - serializedVersion: 3
        time: 0.5
        value: 1
        inSlope: 0
        outSlope: 0
        tangentMode: 0
        weightedMode: 0
        inWeight: 0.33333334
        outWeight: 0.33333334
      - serializedVersion: 3
        time: 1
        value: 0
        inSlope: 0
        outSlope: 0
        tangentMode: 0
        weightedMode: 0
        inWeight: 0.33333334
        outWeight: 0.33333334
      - serializedVersion: 3
        time: 1.5
        value: -1
        inSlope: 0
        outSlope: 0
        tangentMode: 0
        weightedMode: 0
        inWeight: 0.33333334
        outWeight: 0.33333334
      - serializedVersion: 3
        time: 2
        value: 0
        inSlope: 0
        outSlope: 0
        tangentMode: 0
        weightedMode: 0
        inWeight: 0.33333334
        outWeight: 0.33333334
      m_PreInfinity: 2
      m_PostInfinity: 2
      m_RotationOrder: 4
    VerticaltoHorizontalRatio: 2
  jumpAndLandingBob:
    BobDuration: 0.15
    BobAmount: 0.2
  rigidbodyFirstPersonController: {fileID: 4936490315189719453}
  StrideInterval: 4
  RunningStrideLengthen: 0.722
--- !u!124 &4936490315190811665
Behaviour:
  m_ObjectHideFlags: 0
  m_CorrespondingSourceObject: {fileID: 0}
  m_PrefabInstance: {fileID: 0}
  m_PrefabAsset: {fileID: 0}
  m_GameObject: {fileID: 4936490315199964285}
  m_Enabled: 1
--- !u!1 &4936490315199964287
GameObject:
  m_ObjectHideFlags: 0
  m_CorrespondingSourceObject: {fileID: 0}
  m_PrefabInstance: {fileID: 0}
  m_PrefabAsset: {fileID: 0}
  serializedVersion: 6
  m_Component:
  - component: {fileID: 4936490315199674459}
  - component: {fileID: 4936490315205150489}
  - component: {fileID: 4936490315195901913}
  - component: {fileID: 4936490315189719453}
  - component: {fileID: 1035639367}
  - component: {fileID: 7056591463418560902}
  - component: {fileID: 8790511021906271247}
  m_Layer: 0
  m_Name: Player
  m_TagString: Player
  m_Icon: {fileID: 3936346786652291628, guid: 0000000000000000d000000000000000, type: 0}
  m_NavMeshLayer: 0
  m_StaticEditorFlags: 0
  m_IsActive: 1
--- !u!4 &4936490315199674459
Transform:
  m_ObjectHideFlags: 0
  m_CorrespondingSourceObject: {fileID: 0}
  m_PrefabInstance: {fileID: 0}
  m_PrefabAsset: {fileID: 0}
  m_GameObject: {fileID: 4936490315199964287}
  m_LocalRotation: {x: 0, y: 0, z: 0, w: 1}
  m_LocalPosition: {x: 0, y: 1.16, z: -24.66}
  m_LocalScale: {x: 1, y: 1, z: 1}
  m_Children:
  - {fileID: 4936490315199674457}
  m_Father: {fileID: 0}
  m_RootOrder: 0
  m_LocalEulerAnglesHint: {x: 0, y: 0, z: 0}
--- !u!54 &4936490315205150489
Rigidbody:
  m_ObjectHideFlags: 0
  m_CorrespondingSourceObject: {fileID: 0}
  m_PrefabInstance: {fileID: 0}
  m_PrefabAsset: {fileID: 0}
  m_GameObject: {fileID: 4936490315199964287}
  serializedVersion: 2
  m_Mass: 10
  m_Drag: 0
  m_AngularDrag: 0.05
  m_UseGravity: 1
  m_IsKinematic: 0
  m_Interpolate: 0
  m_Constraints: 112
  m_CollisionDetection: 0
--- !u!136 &4936490315195901913
CapsuleCollider:
  m_ObjectHideFlags: 0
  m_CorrespondingSourceObject: {fileID: 0}
  m_PrefabInstance: {fileID: 0}
  m_PrefabAsset: {fileID: 0}
  m_GameObject: {fileID: 4936490315199964287}
  m_Material: {fileID: 13400000, guid: 5f4af0e4fb305a44aa17f753523174fa, type: 2}
  m_IsTrigger: 0
  m_Enabled: 1
  m_Radius: 0.5
  m_Height: 1.6
  m_Direction: 1
  m_Center: {x: 0, y: 0, z: 0}
--- !u!114 &4936490315189719453
MonoBehaviour:
  m_ObjectHideFlags: 0
  m_CorrespondingSourceObject: {fileID: 0}
  m_PrefabInstance: {fileID: 0}
  m_PrefabAsset: {fileID: 0}
  m_GameObject: {fileID: 4936490315199964287}
  m_Enabled: 1
  m_EditorHideFlags: 0
  m_Script: {fileID: 11500000, guid: 81c9795a96c094f4cbde4d65546aa9b2, type: 3}
  m_Name: 
  m_EditorClassIdentifier: 
  cam: {fileID: 4936490315201209945}
  movementSettings:
    ForwardSpeed: 8
    BackwardSpeed: 6
    StrafeSpeed: 6
    RunMultiplier: 2
    RunKey: 304
    JumpForce: 50
    SlopeCurveModifier:
      serializedVersion: 2
      m_Curve:
      - serializedVersion: 3
        time: -90
        value: 1
        inSlope: 0
        outSlope: 0
        tangentMode: 0
        weightedMode: 0
        inWeight: 0.33333334
        outWeight: 0.33333334
      - serializedVersion: 3
        time: 0
        value: 1
        inSlope: 0
        outSlope: 0
        tangentMode: 0
        weightedMode: 0
        inWeight: 0.33333334
        outWeight: 0.33333334
      - serializedVersion: 3
        time: 95.25
        value: 0.49765015
        inSlope: 0
        outSlope: 0
        tangentMode: 0
        weightedMode: 0
        inWeight: 0.33333334
        outWeight: 0.33333334
      m_PreInfinity: 2
      m_PostInfinity: 2
      m_RotationOrder: 4
    CurrentTargetSpeed: 8
  mouseLook:
    XSensitivity: 2
    YSensitivity: 2
    clampVerticalRotation: 1
    MinimumX: -45
    MaximumX: 90
    smooth: 1
    smoothTime: 18
    lockCursor: 1
  advancedSettings:
    groundCheckDistance: 0.1
    stickToGroundHelperDistance: 0.6
    slowDownRate: 20
    airControl: 1
    shellOffset: 0
--- !u!114 &1035639367
MonoBehaviour:
  m_ObjectHideFlags: 0
  m_CorrespondingSourceObject: {fileID: 0}
  m_PrefabInstance: {fileID: 0}
  m_PrefabAsset: {fileID: 0}
  m_GameObject: {fileID: 4936490315199964287}
  m_Enabled: 1
  m_EditorHideFlags: 0
  m_Script: {fileID: 11500000, guid: 4d7b2ecbd151e714eb4cde084d2366b2, type: 3}
  m_Name: 
  m_EditorClassIdentifier: 
  _playerHealth: 100
--- !u!114 &7056591463418560902
MonoBehaviour:
  m_ObjectHideFlags: 0
  m_CorrespondingSourceObject: {fileID: 0}
  m_PrefabInstance: {fileID: 0}
  m_PrefabAsset: {fileID: 0}
  m_GameObject: {fileID: 4936490315199964287}
  m_Enabled: 1
  m_EditorHideFlags: 0
  m_Script: {fileID: 11500000, guid: ecb98c78a18a80c409576afacb2fa744, type: 3}
  m_Name: 
  m_EditorClassIdentifier: 
  _gameOverCanvas: {fileID: 0}
--- !u!114 &8790511021906271247
MonoBehaviour:
  m_ObjectHideFlags: 0
  m_CorrespondingSourceObject: {fileID: 0}
  m_PrefabInstance: {fileID: 0}
  m_PrefabAsset: {fileID: 0}
  m_GameObject: {fileID: 4936490315199964287}
  m_Enabled: 1
  m_EditorHideFlags: 0
  m_Script: {fileID: 11500000, guid: 0655fb7939ee52c4c9669e7dbae368f6, type: 3}
  m_Name: 
  m_EditorClassIdentifier: 
  _ammoSlots:
  - ammoType: 0
    ammoAmount: 10
  - ammoType: 1
    ammoAmount: 20
  - ammoType: 2
    ammoAmount: 30
--- !u!114 &1082735610
MonoBehaviour:
  m_ObjectHideFlags: 0
  m_CorrespondingSourceObject: {fileID: 0}
  m_PrefabInstance: {fileID: 0}
  m_PrefabAsset: {fileID: 0}
  m_GameObject: {fileID: 5297309595511598588}
  m_Enabled: 1
  m_EditorHideFlags: 0
  m_Script: {fileID: 11500000, guid: 9069eb1a993ee7845a2beba35dd7cb1f, type: 3}
  m_Name: 
  m_EditorClassIdentifier: 
  _fpsCamera: {fileID: 4936490315201209945}
  fpsController: {fileID: 4936490315189719453}
  _zoomedOut: 60
  _zoomedOutSensitivity: 2
  _zoomedIn: 45
  _zoomedInSensitivity: 0.5
--- !u!114 &309895793
MonoBehaviour:
  m_ObjectHideFlags: 0
  m_CorrespondingSourceObject: {fileID: 0}
  m_PrefabInstance: {fileID: 0}
  m_PrefabAsset: {fileID: 0}
  m_GameObject: {fileID: 8027165098580504975}
  m_Enabled: 1
  m_EditorHideFlags: 0
  m_Script: {fileID: 11500000, guid: 9069eb1a993ee7845a2beba35dd7cb1f, type: 3}
  m_Name: 
  m_EditorClassIdentifier: 
  _fpsCamera: {fileID: 4936490315201209945}
  fpsController: {fileID: 4936490315189719453}
  _zoomedOut: 60
  _zoomedOutSensitivity: 2
  _zoomedIn: 30
  _zoomedInSensitivity: 0.5
--- !u!1001 &3816652076983741230
PrefabInstance:
  m_ObjectHideFlags: 0
  serializedVersion: 2
  m_Modification:
    m_TransformParent: {fileID: 6568237718259800157}
    m_Modifications:
    - target: {fileID: 541596457331598912, guid: ada2587319194f542957a8c2ae277cb9, type: 3}
      propertyPath: _range
      value: 70
      objectReference: {fileID: 0}
    - target: {fileID: 541596457331598912, guid: ada2587319194f542957a8c2ae277cb9, type: 3}
      propertyPath: ammoSlot
      value: 
      objectReference: {fileID: 8790511021906271247}
    - target: {fileID: 541596457331598912, guid: ada2587319194f542957a8c2ae277cb9, type: 3}
      propertyPath: _FPCamera
      value: 
      objectReference: {fileID: 4936490315201209945}
    - target: {fileID: 541596457331598912, guid: ada2587319194f542957a8c2ae277cb9, type: 3}
      propertyPath: _ammoType
      value: 2
      objectReference: {fileID: 0}
    - target: {fileID: 2337074158996965286, guid: ada2587319194f542957a8c2ae277cb9, type: 3}
      propertyPath: m_RootOrder
      value: 2
      objectReference: {fileID: 0}
    - target: {fileID: 2337074158996965286, guid: ada2587319194f542957a8c2ae277cb9, type: 3}
      propertyPath: m_LocalPosition.x
      value: 0.104
      objectReference: {fileID: 0}
    - target: {fileID: 2337074158996965286, guid: ada2587319194f542957a8c2ae277cb9, type: 3}
      propertyPath: m_LocalPosition.y
      value: -0.074
      objectReference: {fileID: 0}
    - target: {fileID: 2337074158996965286, guid: ada2587319194f542957a8c2ae277cb9, type: 3}
      propertyPath: m_LocalPosition.z
      value: 0.275
      objectReference: {fileID: 0}
    - target: {fileID: 2337074158996965286, guid: ada2587319194f542957a8c2ae277cb9, type: 3}
      propertyPath: m_LocalRotation.w
      value: 0.70710784
      objectReference: {fileID: 0}
    - target: {fileID: 2337074158996965286, guid: ada2587319194f542957a8c2ae277cb9, type: 3}
      propertyPath: m_LocalRotation.x
      value: -0
      objectReference: {fileID: 0}
    - target: {fileID: 2337074158996965286, guid: ada2587319194f542957a8c2ae277cb9, type: 3}
      propertyPath: m_LocalRotation.y
      value: -0.70710576
      objectReference: {fileID: 0}
    - target: {fileID: 2337074158996965286, guid: ada2587319194f542957a8c2ae277cb9, type: 3}
      propertyPath: m_LocalRotation.z
      value: -0
      objectReference: {fileID: 0}
    - target: {fileID: 2337074158996965286, guid: ada2587319194f542957a8c2ae277cb9, type: 3}
      propertyPath: m_LocalEulerAnglesHint.x
      value: 0
      objectReference: {fileID: 0}
    - target: {fileID: 2337074158996965286, guid: ada2587319194f542957a8c2ae277cb9, type: 3}
      propertyPath: m_LocalEulerAnglesHint.y
      value: -90
      objectReference: {fileID: 0}
    - target: {fileID: 2337074158996965286, guid: ada2587319194f542957a8c2ae277cb9, type: 3}
      propertyPath: m_LocalEulerAnglesHint.z
      value: 0
      objectReference: {fileID: 0}
    - target: {fileID: 2337074158997199750, guid: ada2587319194f542957a8c2ae277cb9, type: 3}
      propertyPath: m_Name
      value: Carbine
      objectReference: {fileID: 0}
    - target: {fileID: 2337074158997199750, guid: ada2587319194f542957a8c2ae277cb9, type: 3}
      propertyPath: m_IsActive
      value: 1
      objectReference: {fileID: 0}
    - target: {fileID: 2337074158999389510, guid: ada2587319194f542957a8c2ae277cb9, type: 3}
      propertyPath: m_Materials.Array.data[0]
      value: 
      objectReference: {fileID: 2100000, guid: 16f87d164e568ff47a7897ef69456dc6, type: 2}
    - target: {fileID: 8528350473406363467, guid: ada2587319194f542957a8c2ae277cb9, type: 3}
      propertyPath: _zoomedIn
      value: 20
      objectReference: {fileID: 0}
    - target: {fileID: 8528350473406363467, guid: ada2587319194f542957a8c2ae277cb9, type: 3}
      propertyPath: _fpsCamera
      value: 
      objectReference: {fileID: 4936490315201209945}
    - target: {fileID: 8528350473406363467, guid: ada2587319194f542957a8c2ae277cb9, type: 3}
      propertyPath: fpsController
      value: 
      objectReference: {fileID: 4936490315189719453}
    m_RemovedComponents: []
  m_SourcePrefab: {fileID: 100100000, guid: ada2587319194f542957a8c2ae277cb9, type: 3}
--- !u!4 &1484371789220752520 stripped
Transform:
  m_CorrespondingSourceObject: {fileID: 2337074158996965286, guid: ada2587319194f542957a8c2ae277cb9, type: 3}
  m_PrefabInstance: {fileID: 3816652076983741230}
  m_PrefabAsset: {fileID: 0}
--- !u!1001 &5695026785809869321
PrefabInstance:
  m_ObjectHideFlags: 0
  serializedVersion: 2
  m_Modification:
    m_TransformParent: {fileID: 6568237718259800157}
    m_Modifications:
    - target: {fileID: 541596457331598912, guid: 06bca18a16014c64a8ae7efc9ac8c72b, type: 3}
      propertyPath: _range
      value: 45
      objectReference: {fileID: 0}
    - target: {fileID: 541596457331598912, guid: 06bca18a16014c64a8ae7efc9ac8c72b, type: 3}
      propertyPath: damage
      value: 10
      objectReference: {fileID: 0}
    - target: {fileID: 541596457331598912, guid: 06bca18a16014c64a8ae7efc9ac8c72b, type: 3}
      propertyPath: ammoSlot
      value: 
      objectReference: {fileID: 8790511021906271247}
    - target: {fileID: 541596457331598912, guid: 06bca18a16014c64a8ae7efc9ac8c72b, type: 3}
      propertyPath: _FPCamera
      value: 
      objectReference: {fileID: 4936490315201209945}
    - target: {fileID: 541596457331598912, guid: 06bca18a16014c64a8ae7efc9ac8c72b, type: 3}
      propertyPath: _timeBetweenShots
      value: 0.1
      objectReference: {fileID: 0}
    - target: {fileID: 2337074158996965286, guid: 06bca18a16014c64a8ae7efc9ac8c72b, type: 3}
      propertyPath: m_RootOrder
      value: 0
      objectReference: {fileID: 0}
    - target: {fileID: 2337074158996965286, guid: 06bca18a16014c64a8ae7efc9ac8c72b, type: 3}
      propertyPath: m_LocalPosition.x
      value: 0.104
      objectReference: {fileID: 0}
    - target: {fileID: 2337074158996965286, guid: 06bca18a16014c64a8ae7efc9ac8c72b, type: 3}
      propertyPath: m_LocalPosition.y
      value: -0.074
      objectReference: {fileID: 0}
    - target: {fileID: 2337074158996965286, guid: 06bca18a16014c64a8ae7efc9ac8c72b, type: 3}
      propertyPath: m_LocalPosition.z
      value: 0.275
      objectReference: {fileID: 0}
    - target: {fileID: 2337074158996965286, guid: 06bca18a16014c64a8ae7efc9ac8c72b, type: 3}
      propertyPath: m_LocalRotation.w
      value: 0.70710784
      objectReference: {fileID: 0}
    - target: {fileID: 2337074158996965286, guid: 06bca18a16014c64a8ae7efc9ac8c72b, type: 3}
      propertyPath: m_LocalRotation.x
      value: -0
      objectReference: {fileID: 0}
    - target: {fileID: 2337074158996965286, guid: 06bca18a16014c64a8ae7efc9ac8c72b, type: 3}
      propertyPath: m_LocalRotation.y
      value: -0.70710576
      objectReference: {fileID: 0}
    - target: {fileID: 2337074158996965286, guid: 06bca18a16014c64a8ae7efc9ac8c72b, type: 3}
      propertyPath: m_LocalRotation.z
      value: -0
      objectReference: {fileID: 0}
    - target: {fileID: 2337074158996965286, guid: 06bca18a16014c64a8ae7efc9ac8c72b, type: 3}
      propertyPath: m_LocalEulerAnglesHint.x
      value: 0
      objectReference: {fileID: 0}
    - target: {fileID: 2337074158996965286, guid: 06bca18a16014c64a8ae7efc9ac8c72b, type: 3}
      propertyPath: m_LocalEulerAnglesHint.y
      value: -90
      objectReference: {fileID: 0}
    - target: {fileID: 2337074158996965286, guid: 06bca18a16014c64a8ae7efc9ac8c72b, type: 3}
      propertyPath: m_LocalEulerAnglesHint.z
      value: 0
      objectReference: {fileID: 0}
    - target: {fileID: 2337074158997199750, guid: 06bca18a16014c64a8ae7efc9ac8c72b, type: 3}
      propertyPath: m_Name
      value: Pistol
      objectReference: {fileID: 0}
    - target: {fileID: 2337074158997199750, guid: 06bca18a16014c64a8ae7efc9ac8c72b, type: 3}
      propertyPath: m_IsActive
      value: 1
      objectReference: {fileID: 0}
    m_RemovedComponents: []
  m_SourcePrefab: {fileID: 100100000, guid: 06bca18a16014c64a8ae7efc9ac8c72b, type: 3}
--- !u!1 &8027165098580504975 stripped
GameObject:
  m_CorrespondingSourceObject: {fileID: 2337074158997199750, guid: 06bca18a16014c64a8ae7efc9ac8c72b, type: 3}
  m_PrefabInstance: {fileID: 5695026785809869321}
  m_PrefabAsset: {fileID: 0}
--- !u!4 &8027165098580274607 stripped
Transform:
  m_CorrespondingSourceObject: {fileID: 2337074158996965286, guid: 06bca18a16014c64a8ae7efc9ac8c72b, type: 3}
  m_PrefabInstance: {fileID: 5695026785809869321}
  m_PrefabAsset: {fileID: 0}
--- !u!1001 &7632800453452461690
PrefabInstance:
  m_ObjectHideFlags: 0
  serializedVersion: 2
  m_Modification:
    m_TransformParent: {fileID: 6568237718259800157}
    m_Modifications:
    - target: {fileID: 541596457331598912, guid: 71f40df5e7aeb08409d2128292796c07, type: 3}
      propertyPath: _range
      value: 20
      objectReference: {fileID: 0}
    - target: {fileID: 541596457331598912, guid: 71f40df5e7aeb08409d2128292796c07, type: 3}
      propertyPath: damage
      value: 50
      objectReference: {fileID: 0}
    - target: {fileID: 541596457331598912, guid: 71f40df5e7aeb08409d2128292796c07, type: 3}
      propertyPath: ammoSlot
      value: 
      objectReference: {fileID: 8790511021906271247}
    - target: {fileID: 541596457331598912, guid: 71f40df5e7aeb08409d2128292796c07, type: 3}
      propertyPath: _FPCamera
      value: 
      objectReference: {fileID: 4936490315201209945}
    - target: {fileID: 541596457331598912, guid: 71f40df5e7aeb08409d2128292796c07, type: 3}
      propertyPath: _ammoType
      value: 1
      objectReference: {fileID: 0}
    - target: {fileID: 541596457331598912, guid: 71f40df5e7aeb08409d2128292796c07, type: 3}
      propertyPath: _timeBetweenShots
      value: 1
      objectReference: {fileID: 0}
    - target: {fileID: 2337074158996965286, guid: 71f40df5e7aeb08409d2128292796c07, type: 3}
      propertyPath: m_RootOrder
      value: 1
      objectReference: {fileID: 0}
    - target: {fileID: 2337074158996965286, guid: 71f40df5e7aeb08409d2128292796c07, type: 3}
      propertyPath: m_LocalPosition.x
      value: 0.104
      objectReference: {fileID: 0}
    - target: {fileID: 2337074158996965286, guid: 71f40df5e7aeb08409d2128292796c07, type: 3}
      propertyPath: m_LocalPosition.y
      value: -0.074
      objectReference: {fileID: 0}
    - target: {fileID: 2337074158996965286, guid: 71f40df5e7aeb08409d2128292796c07, type: 3}
      propertyPath: m_LocalPosition.z
      value: 0.275
      objectReference: {fileID: 0}
    - target: {fileID: 2337074158996965286, guid: 71f40df5e7aeb08409d2128292796c07, type: 3}
      propertyPath: m_LocalRotation.w
      value: 0.70710784
      objectReference: {fileID: 0}
    - target: {fileID: 2337074158996965286, guid: 71f40df5e7aeb08409d2128292796c07, type: 3}
      propertyPath: m_LocalRotation.x
      value: -0
      objectReference: {fileID: 0}
    - target: {fileID: 2337074158996965286, guid: 71f40df5e7aeb08409d2128292796c07, type: 3}
      propertyPath: m_LocalRotation.y
      value: -0.70710576
      objectReference: {fileID: 0}
    - target: {fileID: 2337074158996965286, guid: 71f40df5e7aeb08409d2128292796c07, type: 3}
      propertyPath: m_LocalRotation.z
      value: -0
      objectReference: {fileID: 0}
    - target: {fileID: 2337074158997199750, guid: 71f40df5e7aeb08409d2128292796c07, type: 3}
      propertyPath: m_Name
      value: Shotgun
      objectReference: {fileID: 0}
    - target: {fileID: 2337074158997199750, guid: 71f40df5e7aeb08409d2128292796c07, type: 3}
      propertyPath: m_IsActive
      value: 1
      objectReference: {fileID: 0}
    m_RemovedComponents: []
  m_SourcePrefab: {fileID: 100100000, guid: 71f40df5e7aeb08409d2128292796c07, type: 3}
--- !u!1 &5297309595511598588 stripped
GameObject:
  m_CorrespondingSourceObject: {fileID: 2337074158997199750, guid: 71f40df5e7aeb08409d2128292796c07, type: 3}
  m_PrefabInstance: {fileID: 7632800453452461690}
  m_PrefabAsset: {fileID: 0}
--- !u!4 &5297309595511501276 stripped
Transform:
  m_CorrespondingSourceObject: {fileID: 2337074158996965286, guid: 71f40df5e7aeb08409d2128292796c07, type: 3}
  m_PrefabInstance: {fileID: 7632800453452461690}
  m_PrefabAsset: {fileID: 0}
